\select@language {russian}
\contentsline {section}{\numberline {1}\IeC {\CYRL }\IeC {\cyre }\IeC {\cyrk }\IeC {\cyrc }\IeC {\cyri }\IeC {\cyrya } 1}{2}{section.1}
\contentsline {subsection}{\numberline {1.1}\IeC {\CYRA }\IeC {\cyrl }\IeC {\cyrg }\IeC {\cyre }\IeC {\cyrb }\IeC {\cyrr }\IeC {\cyra }\IeC {\cyri }\IeC {\cyrch }\IeC {\cyre }\IeC {\cyrs }\IeC {\cyrk }\IeC {\cyra }\IeC {\cyrya } \IeC {\cyrp }\IeC {\cyrr }\IeC {\cyro }\IeC {\cyrb }\IeC {\cyrl }\IeC {\cyre }\IeC {\cyrm }\IeC {\cyra } \IeC {\cyrs }\IeC {\cyro }\IeC {\cyrb }\IeC {\cyrs }\IeC {\cyrt }\IeC {\cyrv }\IeC {\cyre }\IeC {\cyrn }\IeC {\cyrn }\IeC {\cyrery }\IeC {\cyrh } \IeC {\cyrz }\IeC {\cyrn }\IeC {\cyra }\IeC {\cyrch }\IeC {\cyre }\IeC {\cyrn }\IeC {\cyri }\IeC {\cyrishrt }}{2}{subsection.1.1}
\contentsline {subsection}{\numberline {1.2}\IeC {\CYRO }\IeC {\cyrb }\IeC {\cyrshch }\IeC {\cyra }\IeC {\cyrya } \IeC {\cyrh }\IeC {\cyra }\IeC {\cyrr }\IeC {\cyra }\IeC {\cyrk }\IeC {\cyrt }\IeC {\cyre }\IeC {\cyrr }\IeC {\cyri }\IeC {\cyrs }\IeC {\cyrt }\IeC {\cyri }\IeC {\cyrk }\IeC {\cyra } \IeC {\cyrm }\IeC {\cyre }\IeC {\cyrt }\IeC {\cyro }\IeC {\cyrd }\IeC {\cyro }\IeC {\cyrv }}{2}{subsection.1.2}
\contentsline {subsection}{\numberline {1.3}\IeC {\CYRM }\IeC {\cyre }\IeC {\cyrt }\IeC {\cyro }\IeC {\cyrd } \IeC {\CYRN }\IeC {\cyrsftsn }\IeC {\cyryu }\IeC {\cyrt }\IeC {\cyro }\IeC {\cyrn }\IeC {\cyra }}{3}{subsection.1.3}
\contentsline {subsection}{\numberline {1.4}\IeC {\CYRP }\IeC {\cyro }\IeC {\cyrl }\IeC {\cyri }\IeC {\cyrn }\IeC {\cyro }\IeC {\cyrm } \IeC {\CYRU }\IeC {\cyri }\IeC {\cyrl }\IeC {\cyrk }\IeC {\cyri }\IeC {\cyrn }\IeC {\cyrs }\IeC {\cyro }\IeC {\cyrn }\IeC {\cyra }}{4}{subsection.1.4}
\contentsline {subsection}{\numberline {1.5}\IeC {\CYRI }\IeC {\cyrt }\IeC {\cyre }\IeC {\cyrr }\IeC {\cyra }\IeC {\cyrc }\IeC {\cyri }\IeC {\cyro }\IeC {\cyrn }\IeC {\cyrn }\IeC {\cyrery }\IeC {\cyre } \IeC {\cyrm }\IeC {\cyre }\IeC {\cyrt }\IeC {\cyro }\IeC {\cyrd }\IeC {\cyrery }}{4}{subsection.1.5}
\contentsline {subsection}{\numberline {1.6}\IeC {\CYRS }\IeC {\cyrt }\IeC {\cyre }\IeC {\cyrp }\IeC {\cyre }\IeC {\cyrn }\IeC {\cyrn }\IeC {\cyro }\IeC {\cyrishrt } \IeC {\cyrm }\IeC {\cyre }\IeC {\cyrt }\IeC {\cyro }\IeC {\cyrd } (\IeC {\cyrp }\IeC {\cyrr }\IeC {\cyro }\IeC {\cyrs }\IeC {\cyrt }\IeC {\cyre }\IeC {\cyrishrt }\IeC {\cyrsh }\IeC {\cyri }\IeC {\cyrishrt } \IeC {\cyrm }\IeC {\cyre }\IeC {\cyrt }\IeC {\cyro }\IeC {\cyrd })}{4}{subsection.1.6}
\contentsline {subsection}{\numberline {1.7}\IeC {\CYRT }\IeC {\cyre }\IeC {\cyro }\IeC {\cyrr }\IeC {\cyre }\IeC {\cyrm }\IeC {\cyra } \IeC {\cyrl }\IeC {\cyro }\IeC {\cyrk }\IeC {\cyra }\IeC {\cyrl }\IeC {\cyri }\IeC {\cyrz }\IeC {\cyra }\IeC {\cyrc }\IeC {\cyri }\IeC {\cyri } \IeC {\cyri } \IeC {\cyrt }\IeC {\cyre }\IeC {\cyro }\IeC {\cyrr }\IeC {\cyre }\IeC {\cyrm }\IeC {\cyra } \IeC {\cyro } \IeC {\cyrv }\IeC {\cyro }\IeC {\cyrz }\IeC {\cyrm }\IeC {\cyru }\IeC {\cyrshch }\IeC {\cyre }\IeC {\cyrn }\IeC {\cyri }\IeC {\cyrya }\IeC {\cyrh }}{5}{subsection.1.7}
\contentsline {section}{\numberline {2}\IeC {\CYRL }\IeC {\cyre }\IeC {\cyrk }\IeC {\cyrc }\IeC {\cyri }\IeC {\cyrya } 2}{6}{section.2}
\contentsline {subsection}{\numberline {2.1}\IeC {\CYRP }\IeC {\cyrr }\IeC {\cyre }\IeC {\cyro }\IeC {\cyrb }\IeC {\cyrr }\IeC {\cyra }\IeC {\cyrz }\IeC {\cyro }\IeC {\cyrv }\IeC {\cyra }\IeC {\cyrn }\IeC {\cyri }\IeC {\cyre } \IeC {\cyrs }\IeC {\cyri }\IeC {\cyrm }\IeC {\cyrm }\IeC {\cyre }\IeC {\cyrt }\IeC {\cyrr }\IeC {\cyri }\IeC {\cyrch }\IeC {\cyrn }\IeC {\cyro }\IeC {\cyrishrt } \IeC {\cyrm }\IeC {\cyra }\IeC {\cyrt }\IeC {\cyrr }\IeC {\cyri }\IeC {\cyrc }\IeC {\cyrery } \IeC {\cyrk } \IeC {\cyrt }\IeC {\cyrr }\IeC {\cyre }\IeC {\cyrh }\IeC {\cyrd }\IeC {\cyri }\IeC {\cyra }\IeC {\cyrg }\IeC {\cyro }\IeC {\cyrn }\IeC {\cyra }\IeC {\cyrl }\IeC {\cyrsftsn }\IeC {\cyrn }\IeC {\cyro }\IeC {\cyrm }\IeC {\cyru } \IeC {\cyrv }\IeC {\cyri }\IeC {\cyrd }\IeC {\cyru }}{9}{subsection.2.1}
\contentsline {subsection}{\numberline {2.2}\IeC {\CYRA }\IeC {\cyrl }\IeC {\cyrg }\IeC {\cyro }\IeC {\cyrr }\IeC {\cyri }\IeC {\cyrt }\IeC {\cyrm } \IeC {\cyrv }\IeC {\cyrr }\IeC {\cyra }\IeC {\cyrshch }\IeC {\cyre }\IeC {\cyrn }\IeC {\cyri }\IeC {\cyrishrt } (\IeC {\cyrm }\IeC {\cyre }\IeC {\cyrt }\IeC {\cyro }\IeC {\cyrd } \IeC {\CYRG }\IeC {\cyri }\IeC {\cyrv }\IeC {\cyre }\IeC {\cyrn }\IeC {\cyrs }\IeC {\cyra })}{9}{subsection.2.2}
\contentsline {section}{\numberline {3}\IeC {\CYRL }\IeC {\cyre }\IeC {\cyrk }\IeC {\cyrc }\IeC {\cyri }\IeC {\cyrya } 3}{11}{section.3}
\contentsline {subsection}{\numberline {3.1}\IeC {\CYRS }\IeC {\cyrh }\IeC {\cyre }\IeC {\cyrm }\IeC {\cyra } \IeC {\cyra }\IeC {\cyrl }\IeC {\cyrg }\IeC {\cyro }\IeC {\cyrr }\IeC {\cyri }\IeC {\cyrt }\IeC {\cyrm }\IeC {\cyra } (\IeC {\cyrp }\IeC {\cyrr }\IeC {\cyri }\IeC {\cyrv }\IeC {\cyre }\IeC {\cyrd }\IeC {\cyre }\IeC {\cyrn }\IeC {\cyri }\IeC {\cyre } \IeC {\cyrm }\IeC {\cyra }\IeC {\cyrt }\IeC {\cyrr }\IeC {\cyri }\IeC {\cyrc }\IeC {\cyrery } \IeC {\cyrk } \IeC {\cyrt }\IeC {\cyrr }\IeC {\cyre }\IeC {\cyrh }\IeC {\cyrd }\IeC {\cyri }\IeC {\cyra }\IeC {\cyrg }\IeC {\cyro }\IeC {\cyrn }\IeC {\cyra }\IeC {\cyrl }\IeC {\cyrsftsn }\IeC {\cyrn }\IeC {\cyro }\IeC {\cyrishrt } \IeC {\cyrf }\IeC {\cyro }\IeC {\cyrr }\IeC {\cyrm }\IeC {\cyre } \IeC {\cyrm }\IeC {\cyre }\IeC {\cyrt }\IeC {\cyro }\IeC {\cyrd }\IeC {\cyro }\IeC {\cyrm } \IeC {\cyrv }\IeC {\cyrr }\IeC {\cyra }\IeC {\cyrshch }\IeC {\cyre }\IeC {\cyrn }\IeC {\cyri }\IeC {\cyrishrt })}{11}{subsection.3.1}
\contentsline {subsection}{\numberline {3.2}\IeC {\CYRO }\IeC {\cyrc }\IeC {\cyre }\IeC {\cyrn }\IeC {\cyrk }\IeC {\cyra } \IeC {\cyrs }\IeC {\cyrl }\IeC {\cyro }\IeC {\cyrzh }\IeC {\cyrn }\IeC {\cyro }\IeC {\cyrs }\IeC {\cyrt }\IeC {\cyri } \IeC {\cyrm }\IeC {\cyre }\IeC {\cyrt }\IeC {\cyro }\IeC {\cyrd }\IeC {\cyra } \IeC {\CYRG }\IeC {\cyri }\IeC {\cyrv }\IeC {\cyre }\IeC {\cyrn }\IeC {\cyrs }\IeC {\cyra }}{11}{subsection.3.2}
\contentsline {subsection}{\numberline {3.3}\IeC {\CYRA }\IeC {\cyrl }\IeC {\cyrg }\IeC {\cyro }\IeC {\cyrr }\IeC {\cyri }\IeC {\cyrt }\IeC {\cyrm } \IeC {\cyro }\IeC {\cyrt }\IeC {\cyrr }\IeC {\cyra }\IeC {\cyrzh }\IeC {\cyre }\IeC {\cyrn }\IeC {\cyri }\IeC {\cyrishrt } (\IeC {\CYRH }\IeC {\cyra }\IeC {\cyru }\IeC {\cyrs }\IeC {\cyrh }\IeC {\cyro }\IeC {\cyrl }\IeC {\cyrd }\IeC {\cyre }\IeC {\cyrr }\IeC {\cyra })}{12}{subsection.3.3}
\contentsline {subsection}{\numberline {3.4}\IeC {\CYRS }\IeC {\cyrh }\IeC {\cyre }\IeC {\cyrm }\IeC {\cyra } \IeC {\cyra }\IeC {\cyrl }\IeC {\cyrg }\IeC {\cyro }\IeC {\cyrr }\IeC {\cyri }\IeC {\cyrt }\IeC {\cyrm }\IeC {\cyra }:}{13}{subsection.3.4}
\contentsline {subsection}{\numberline {3.5}\IeC {\CYRP }\IeC {\cyrr }\IeC {\cyri }\IeC {\cyrv }\IeC {\cyre }\IeC {\cyrd }\IeC {\cyre }\IeC {\cyrn }\IeC {\cyri }\IeC {\cyre } \IeC {\cyrl }\IeC {\cyre }\IeC {\cyrn }\IeC {\cyrt }\IeC {\cyro }\IeC {\cyrch }\IeC {\cyrn }\IeC {\cyro }\IeC {\cyrishrt } \IeC {\cyrm }\IeC {\cyra }\IeC {\cyrt }\IeC {\cyrr }\IeC {\cyri }\IeC {\cyrc }\IeC {\cyrery } \IeC {\cyrk } \IeC {\cyrt }\IeC {\cyrr }\IeC {\cyre }\IeC {\cyrh }\IeC {\cyrd }\IeC {\cyri }\IeC {\cyra }\IeC {\cyrg }\IeC {\cyro }\IeC {\cyrn }\IeC {\cyra }\IeC {\cyrl }\IeC {\cyrsftsn }\IeC {\cyrn }\IeC {\cyro }\IeC {\cyrishrt } \IeC {\cyrf }\IeC {\cyro }\IeC {\cyrr }\IeC {\cyrm }\IeC {\cyre }}{15}{subsection.3.5}
\contentsline {subsection}{\numberline {3.6}\IeC {\CYRS }\IeC {\cyrt }\IeC {\cyre }\IeC {\cyrp }\IeC {\cyre }\IeC {\cyrn }\IeC {\cyrn }\IeC {\cyro }\IeC {\cyrishrt } \IeC {\cyrm }\IeC {\cyre }\IeC {\cyrt }\IeC {\cyro }\IeC {\cyrd }}{16}{subsection.3.6}
\contentsline {section}{\numberline {4}\IeC {\CYRL }\IeC {\cyre }\IeC {\cyrk }\IeC {\cyrc }\IeC {\cyri }\IeC {\cyrya } 4}{17}{section.4}
\contentsline {subsection}{\numberline {4.1}\IeC {\CYRM }\IeC {\cyre }\IeC {\cyrt }\IeC {\cyro }\IeC {\cyrd } \IeC {\CYRYA }\IeC {\cyrk }\IeC {\cyro }\IeC {\cyrb }\IeC {\cyri }}{19}{subsection.4.1}
\contentsline {subsection}{\numberline {4.2}\IeC {\CYRM }\IeC {\cyro }\IeC {\cyrd }\IeC {\cyri }\IeC {\cyrf }\IeC {\cyri }\IeC {\cyrk }\IeC {\cyra }\IeC {\cyrc }\IeC {\cyri }\IeC {\cyri } \IeC {\cyrm }\IeC {\cyre }\IeC {\cyrt }\IeC {\cyro }\IeC {\cyrd }\IeC {\cyra } \IeC {\CYRYA }\IeC {\cyrk }\IeC {\cyro }\IeC {\cyrb }\IeC {\cyri }}{21}{subsection.4.2}
\contentsline {subsection}{\numberline {4.3}\IeC {\CYRK }\IeC {\cyro }\IeC {\cyrg }\IeC {\cyrd }\IeC {\cyra } \IeC {\cyro }\IeC {\cyrs }\IeC {\cyrt }\IeC {\cyra }\IeC {\cyrn }\IeC {\cyra }\IeC {\cyrv }\IeC {\cyrl }\IeC {\cyri }\IeC {\cyrv }\IeC {\cyra }\IeC {\cyrt }\IeC {\cyrsftsn } \IeC {\cyra }\IeC {\cyrl }\IeC {\cyrg }\IeC {\cyro }\IeC {\cyrr }\IeC {\cyri }\IeC {\cyrt }\IeC {\cyrm }?}{21}{subsection.4.3}
\contentsline {section}{\numberline {5}\IeC {\CYRL }\IeC {\cyre }\IeC {\cyrk }\IeC {\cyrc }\IeC {\cyri }\IeC {\cyrya } 5}{22}{section.5}
\contentsline {subsection}{\numberline {5.1}\IeC {\CYRM }\IeC {\cyre }\IeC {\cyrt }\IeC {\cyro }\IeC {\cyrd } \IeC {\cyrb }\IeC {\cyri }\IeC {\cyrs }\IeC {\cyrs }\IeC {\cyre }\IeC {\cyrk }\IeC {\cyrc }\IeC {\cyri }\IeC {\cyri }}{22}{subsection.5.1}
\contentsline {subsection}{\numberline {5.2} \IeC {\CYRM }\IeC {\cyro }\IeC {\cyrd }\IeC {\cyri }\IeC {\cyrf }\IeC {\cyri }\IeC {\cyrk }\IeC {\cyra }\IeC {\cyrc }\IeC {\cyri }\IeC {\cyrya }, \IeC {\cyrch }\IeC {\cyrt }\IeC {\cyro } \IeC {\cyrb }\IeC {\cyrery } \IeC {\cyrn }\IeC {\cyra }\IeC {\cyrishrt }\IeC {\cyrt }\IeC {\cyri } \IeC {\cyrn }\IeC {\cyra }\IeC {\cyri }\IeC {\cyrb }\IeC {\cyro }\IeC {\cyrl }\IeC {\cyrsftsn }\IeC {\cyrsh }\IeC {\cyre }\IeC {\cyre } \IeC {\cyrs }.\IeC {\cyrch }.}{25}{subsection.5.2}
\contentsline {subsection}{\numberline {5.3}\IeC {\CYRR }\IeC {\cyra }\IeC {\cyrz }\IeC {\cyrd }\IeC {\cyre }\IeC {\cyrl }\IeC {\cyrya }\IeC {\cyrishrt } \IeC {\cyri } \IeC {\cyrv }\IeC {\cyrl }\IeC {\cyra }\IeC {\cyrs }\IeC {\cyrt }\IeC {\cyrv }\IeC {\cyru }\IeC {\cyrishrt }}{25}{subsection.5.3}
\contentsline {section}{\numberline {6}\IeC {\CYRL }\IeC {\cyre }\IeC {\cyrk }\IeC {\cyrc }\IeC {\cyri }\IeC {\cyrya } 6}{27}{section.6}
\contentsline {subsection}{\numberline {6.1}\IeC {\CYRV }\IeC {\cyrery }\IeC {\cyrch }\IeC {\cyri }\IeC {\cyrs }\IeC {\cyrl }\IeC {\cyre }\IeC {\cyrn }\IeC {\cyri }\IeC {\cyre } \IeC {\cyrs }.\IeC {\cyrch }. \IeC {\cyri } \IeC {\cyrs }.\IeC {\cyrv } \IeC {\cyrt }\IeC {\cyrr }\IeC {\cyre }\IeC {\cyrh }\IeC {\cyrd }\IeC {\cyri }\IeC {\cyra }\IeC {\cyrg }\IeC {\cyro }\IeC {\cyrn }\IeC {\cyra }\IeC {\cyrl }\IeC {\cyrsftsn }\IeC {\cyrn }\IeC {\cyro }\IeC {\cyrishrt } \IeC {\cyrm }\IeC {\cyra }\IeC {\cyrt }\IeC {\cyrr }\IeC {\cyri }\IeC {\cyrc }\IeC {\cyrery } (\IeC {\cyra }\IeC {\cyrl }\IeC {\cyrg }\IeC {\cyro }\IeC {\cyrr }\IeC {\cyri }\IeC {\cyrt }\IeC {\cyrm }):}{27}{subsection.6.1}
\contentsline {subsection}{\numberline {6.2}\IeC {\CYRP }\IeC {\cyro }\IeC {\cyrn }\IeC {\cyrya }\IeC {\cyrt }\IeC {\cyri }\IeC {\cyre } \IeC {\cyrd }\IeC {\cyre }\IeC {\cyrf }\IeC {\cyrl }\IeC {\cyrya }\IeC {\cyrc }\IeC {\cyri }\IeC {\cyri }}{29}{subsection.6.2}
\contentsline {subsection}{\numberline {6.3}\IeC {\CYRR }\IeC {\cyre }\IeC {\cyrsh }\IeC {\cyre }\IeC {\cyrn }\IeC {\cyri }\IeC {\cyre } \IeC {\cyrv }\IeC {\cyre }\IeC {\cyrk }\IeC {\cyro }\IeC {\cyrv }\IeC {\cyro }\IeC {\cyrg }\IeC {\cyro } \IeC {\cyru }\IeC {\cyrr }\IeC {\cyra }\IeC {\cyrv }\IeC {\cyrn }\IeC {\cyre }\IeC {\cyrn }\IeC {\cyri }\IeC {\cyrya }}{30}{subsection.6.3}
\contentsline {subsection}{\numberline {6.4}QR \IeC {\cyra }\IeC {\cyrl }\IeC {\cyrg }\IeC {\cyro }\IeC {\cyrr }\IeC {\cyri }\IeC {\cyrt }\IeC {\cyrm }}{31}{subsection.6.4}
\contentsline {section}{\numberline {7}\IeC {\CYRL }\IeC {\cyre }\IeC {\cyrk }\IeC {\cyrc }\IeC {\cyri }\IeC {\cyrya } 7}{32}{section.7}
\contentsline {subsection}{\numberline {7.1}\IeC {\CYRO }\IeC {\cyrp }\IeC {\cyrt }\IeC {\cyri }\IeC {\cyrm }\IeC {\cyra }\IeC {\cyrl }\IeC {\cyrsftsn }\IeC {\cyrn }\IeC {\cyra }\IeC {\cyrya } (\IeC {\cyrp }\IeC {\cyrr }\IeC {\cyra }\IeC {\cyrk }\IeC {\cyrt }\IeC {\cyri }\IeC {\cyrch }\IeC {\cyre }\IeC {\cyrs }\IeC {\cyrk }\IeC {\cyra }\IeC {\cyrya }) \IeC {\cyrr }\IeC {\cyre }\IeC {\cyra }\IeC {\cyrl }\IeC {\cyri }\IeC {\cyrz }\IeC {\cyra }\IeC {\cyrc }\IeC {\cyri }\IeC {\cyrya } QR \IeC {\cyra }\IeC {\cyrl }\IeC {\cyrg }\IeC {\cyro }\IeC {\cyrr }\IeC {\cyri }\IeC {\cyrt }\IeC {\cyrm }\IeC {\cyra }}{34}{subsection.7.1}
\contentsline {section}{\numberline {8}\IeC {\CYRL }\IeC {\cyre }\IeC {\cyrk }\IeC {\cyrc }\IeC {\cyri }\IeC {\cyrya } 8}{35}{section.8}
\contentsline {subsection}{\numberline {8.1}\IeC {\CYRT }\IeC {\cyre }\IeC {\cyrh }\IeC {\cyrn }\IeC {\cyri }\IeC {\cyrk }\IeC {\cyri } \IeC {\cyrs }\IeC {\cyrd }\IeC {\cyrv }\IeC {\cyri }\IeC {\cyrg }\IeC {\cyro }\IeC {\cyrv } (\IeC {\CYRR }\IeC {\cyre }\IeC {\cyrl }\IeC {\cyre }\IeC {\cyrya }, \IeC {\CYRU }\IeC {\cyri }\IeC {\cyrl }\IeC {\cyrk }\IeC {\cyri }\IeC {\cyrn }\IeC {\cyrs }\IeC {\cyro }\IeC {\cyrn }\IeC {\cyra })}{37}{subsection.8.1}
